C:\Users\AnaCarolina\Desktop\Outros Documentos\Etc\Mestrado\1º Ano\1º Semestre\Teste e Validação\OSMOTester\testesevalidacaodemo\src\main\java\Model.User.java
C:\Users\AnaCarolina\Desktop\Outros Documentos\Etc\Mestrado\1º Ano\1º Semestre\Teste e Validação\OSMOTester\testesevalidacaodemo\src\main\java\Model.Book.java
C:\Users\AnaCarolina\Desktop\Outros Documentos\Etc\Mestrado\1º Ano\1º Semestre\Teste e Validação\OSMOTester\testesevalidacaodemo\src\main\java\BookState.DamagedState.java
C:\Users\AnaCarolina\Desktop\Outros Documentos\Etc\Mestrado\1º Ano\1º Semestre\Teste e Validação\OSMOTester\testesevalidacaodemo\src\main\java\BookState.RequestedState.java
C:\Users\AnaCarolina\Desktop\Outros Documentos\Etc\Mestrado\1º Ano\1º Semestre\Teste e Validação\OSMOTester\testesevalidacaodemo\src\main\java\BookState.BookState.java
C:\Users\AnaCarolina\Desktop\Outros Documentos\Etc\Mestrado\1º Ano\1º Semestre\Teste e Validação\OSMOTester\testesevalidacaodemo\src\main\java\BookState.AvailableState.java
C:\Users\AnaCarolina\Desktop\Outros Documentos\Etc\Mestrado\1º Ano\1º Semestre\Teste e Validação\OSMOTester\testesevalidacaodemo\src\main\java\Model.Bookstore.java
C:\Users\AnaCarolina\Desktop\Outros Documentos\Etc\Mestrado\1º Ano\1º Semestre\Teste e Validação\OSMOTester\testesevalidacaodemo\src\main\java\BookState.UnavailableState.java
